<?xml version="1.0" encoding="UTF-8" standalone="no"?>
<svg
   xmlns:dc="http://purl.org/dc/elements/1.1/"
   xmlns:cc="http://creativecommons.org/ns#"
   xmlns:rdf="http://www.w3.org/1999/02/22-rdf-syntax-ns#"
   xmlns:svg="http://www.w3.org/2000/svg"
   xmlns="http://www.w3.org/2000/svg"
   xmlns:sodipodi="http://sodipodi.sourceforge.net/DTD/sodipodi-0.dtd"
   xmlns:inkscape="http://www.inkscape.org/namespaces/inkscape"
   inkscape:version="1.0 (4035a4f, 2020-05-01)"
   sodipodi:docname="screenkey-active.svg"
   xml:space="preserve"
   viewBox="0 0 21.999999 21.999999"
   height="22"
   width="22"
   y="0px"
   x="0px"
   id="Capa_1"
   version="1.1"><metadata
   id="metadata41"><rdf:RDF><cc:Work
       rdf:about=""><dc:format>image/svg+xml</dc:format><dc:type
         rdf:resource="http://purl.org/dc/dcmitype/StillImage" /><dc:title></dc:title></cc:Work></rdf:RDF></metadata><defs
   id="defs39">
	
</defs><sodipodi:namedview
   inkscape:current-layer="Capa_1"
   inkscape:window-maximized="1"
   inkscape:window-y="27"
   inkscape:window-x="0"
   inkscape:cy="9.9534053"
   inkscape:cx="13.465977"
   inkscape:zoom="24.815628"
   showgrid="false"
   id="namedview37"
   inkscape:window-height="1016"
   inkscape:window-width="1920"
   inkscape:pageshadow="2"
   inkscape:pageopacity="0"
   guidetolerance="10"
   gridtolerance="10"
   objecttolerance="10"
   borderopacity="1"
   bordercolor="#666666"
   pagecolor="#ffffff" />
















<g
   transform="matrix(0.05,0,0,0.05,1,1)"
   id="g6">
</g><g
   transform="matrix(0.05,0,0,0.05,1,1)"
   id="g8">
</g><g
   transform="matrix(0.05,0,0,0.05,1,1)"
   id="g10">
</g><g
   transform="matrix(0.05,0,0,0.05,1,1)"
   id="g12">
</g><g
   transform="matrix(0.05,0,0,0.05,1,1)"
   id="g14">
</g><g
   transform="matrix(0.05,0,0,0.05,1,1)"
   id="g16">
</g><g
   transform="matrix(0.05,0,0,0.05,1,1)"
   id="g18">
</g><g
   transform="matrix(0.05,0,0,0.05,1,1)"
   id="g20">
</g><g
   transform="matrix(0.05,0,0,0.05,1,1)"
   id="g22">
</g><g
   transform="matrix(0.05,0,0,0.05,1,1)"
   id="g24">
</g><g
   transform="matrix(0.05,0,0,0.05,1,1)"
   id="g26">
</g><g
   transform="matrix(0.05,0,0,0.05,1,1)"
   id="g28">
</g><g
   transform="matrix(0.05,0,0,0.05,1,1)"
   id="g30">
</g><g
   transform="matrix(0.05,0,0,0.05,1,1)"
   id="g32">
</g><g
   transform="matrix(0.05,0,0,0.05,1,1)"
   id="g34">
</g><rect
   ry="2.5"
   rx="2.5"
   y="1"
   x="1"
   height="20"
   width="20"
   id="rect877"
   style="fill:#dcd8d0;fill-opacity:1;fill-rule:nonzero;stroke:none;stroke-width:0.7;stroke-linecap:round;stroke-miterlimit:4;stroke-dasharray:none;stroke-dashoffset:0;stroke-opacity:1" /><path
   d="M 5,3 C 3.892,3 3,3.892 3,5 v 12 c 0,1.108 0.892,2 2,2 h 12 c 1.108,0 2,-0.892 2,-2 V 5 C 19,3.892 18.108,3 17,3 Z m 0.6,0.8 h 10.8 c 0.9972,0 1.8,0.8028 1.8,1.8 v 10.8 c 0,0.9972 -0.8028,1.8 -1.8,1.8 H 5.6 C 4.6028,18.2 3.8,17.3972 3.8,16.4 V 5.6 C 3.8,4.6028 4.6028,3.8 5.6,3.8 Z"
   style="fill:#7c7c7c;fill-opacity:1;fill-rule:nonzero;stroke:none;stroke-width:0.56;stroke-linecap:round;stroke-miterlimit:4;stroke-dasharray:none;stroke-dashoffset:0;stroke-opacity:1"
   id="rect883" /><path
   d="m 7.50684,13.571953 q -0.3320315,0 -0.6474615,-0.0332 -0.3154305,-0.0332 -0.630861,-0.110677 -0.641928,-0.149414 -1.1953145,-0.437175 v -1.687829 q 0.65853,0.464845 1.2672545,0.691734 0.6197935,0.226888 1.195315,0.226888 0.6087245,0 0.94629,-0.276693 0.3320315,-0.276693 0.3320315,-0.763673 0,-0.381837 -0.2213545,-0.652996 Q 8.4365285,10.384449 8.270513,10.279305 8.1100305,10.168628 7.9108115,10.091154 L 7.108402,9.786791 Q 6.472008,9.5433015 6.0625015,9.2998115 5.652996,9.0507875 5.437175,8.79623 5,8.2926485 5,7.4072305 5,6.2783225 5.719402,5.641928 6.4443385,5 7.6894575,5 8.303716,5 8.8349665,5.121745 9.3717515,5.2379561 9.9638745,5.5146492 V 7.108402 Q 8.901373,6.3502625 7.8167365,6.3502625 q -0.597657,0 -0.9020195,0.237956 -0.31543,0.2379565 -0.31543,0.6751315 0,0.3430995 0.232422,0.569988 0.1106775,0.110677 0.326498,0.226888 0.2213545,0.116211 0.63086,0.2711595 L 8.4918675,8.597011 q 1.001629,0.3707685 1.4664735,0.962892 0.470378,0.603191 0.470378,1.555015 0,1.222984 -0.7415375,1.837243 Q 8.945644,13.571953 7.50684,13.571953 Z"
   style="font-style:normal;font-variant:normal;font-weight:bold;font-stretch:normal;font-size:226.667px;line-height:125%;font-family:Hack;-inkscape-font-specification:'Hack Bold';font-variant-ligatures:normal;font-variant-caps:normal;font-variant-numeric:normal;font-feature-settings:normal;text-align:start;letter-spacing:0px;word-spacing:0px;writing-mode:lr-tb;text-anchor:start;fill:#7c7c7c;fill-opacity:1;stroke:none;stroke-width:0.05px;stroke-linecap:butt;stroke-linejoin:miter;stroke-opacity:1"
   id="path871" /></svg>
